{"openapi":"3.0.0","paths":{"/anime":{"get":{"operationId":"List anime","summary":"List all anime available in the service","deprecated":true,"parameters":[],"responses":{"200":{"description":"All anime objects in the service","content":{"application/json":{"schema":{"type":"array","items":{"$ref":"#/components/schemas/Anime"}}}}}},"tags":["anime"]}},"/anime/{id}":{"get":{"operationId":"Get anime","summary":"Get an anime object in the service with ID or slug","parameters":[{"name":"id","required":true,"in":"path","schema":{"type":"string"}}],"responses":{"200":{"description":"The found anime object with the ID or slug provided","content":{"application/json":{"schema":{"$ref":"#/components/schemas/Anime"}}}},"404":{"description":"The anime cannot be found within the database for given ID"}},"tags":["anime"]}},"/recent":{"get":{"operationId":"Fetch recent episode releases","summary":"Get recent episode releases","parameters":[{"name":"page","required":false,"in":"path","description":"The page number of search list, default to 1","schema":{"type":"number"}},{"name":"perPage","required":false,"in":"path","description":"How many elements per page should this response have? Minimum: 1, maximum: 100","schema":{"type":"number"}}],"responses":{"200":{"description":"The list of recent episode releases, paginated","content":{"application/json":{"schema":{"$ref":"#/components/schemas/Recent"}}}}},"tags":["recent"]}},"/search/{query}":{"get":{"operationId":"Search Anime","summary":"Search anime based on query","parameters":[{"name":"query","required":true,"in":"path","schema":{"type":"string"}},{"name":"page","required":false,"in":"path","description":"The page number of search list, default to 1","schema":{"type":"number"}},{"name":"perPage","required":false,"in":"path","description":"How many elements per page should this response have? Minimum: 1, maximum: 100","schema":{"type":"number"}}],"responses":{"200":{"description":"The list of anime matched from search query","content":{"application/json":{"schema":{"$ref":"#/components/schemas/Search"}}}},"429":{"description":"The API throttling has been reached, check response headers for more information"}},"tags":["search"]}},"/episode/{id}":{"get":{"operationId":"Get episode","summary":"Get an episode object with provided ID","parameters":[{"name":"id","required":true,"in":"path","schema":{"type":"string"}}],"responses":{"200":{"description":"The found episode object with the ID provided","content":{"application/json":{"schema":{"$ref":"#/components/schemas/Episode"}}}},"404":{"description":"The episode cannot be found within the database for given ID"}},"tags":["episode"]}}},"info":{"title":"Enime API","description":"An open source API service for developers to access anime info (as well as their video sources)","version":"1.0","contact":{"name":"Enime Team","url":"https://api.enime.moe","email":"team@enime.moe"}},"tags":[{"name":"anime","description":""},{"name":"recent","description":""},{"name":"episode","description":""},{"name":"search","description":""},{"name":"proxy","description":""}],"servers":[{"url":"https://api.enime.moe"}],"components":{"schemas":{"Anime":{"type":"object","properties":{"id":{"type":"string","description":"Anime ID","example":"cl5xgvv4703502tmnd5g76sbv"},"slug":{"type":"string","description":"Anime slug","example":"lycoris-recoil"},"anilistId":{"type":"number","description":"Anilist ID","example":143270},"coverImage":{"type":"object","description":"Cover image","example":"https://s4.anilist.co/file/anilistcdn/media/anime/cover/large/bx143270-iZOJX2DMUFMC.jpg"},"bannerImage":{"type":"object","description":"Banner image","example":"https://s4.anilist.co/file/anilistcdn/media/anime/banner/143270-Ivjs2nVpARtS.jpg"},"status":{"type":"string","description":"Anime status","example":"RELEASING"},"season":{"type":"string","description":"Anime season","example":"SUMMER"},"title":{"type":"object","description":"Anime title","example":{"native":"リコリス・リコイル","romaji":"Lycoris Recoil","english":"Lycoris Recoil"}},"currentEpisode":{"type":"number","description":"Current episode number","example":4},"next":{"type":"object","description":"Next episode air date","example":"2022-07-30T14:30:00.000Z"},"synonyms":{"description":"Synonyms / alternative titles","example":["ไลโคริส รีคอยล์","LycoRyco"],"type":"array","items":{"type":"string"}},"lastEpisodeUpdate":{"type":"object","description":"Last time the episode was updated in database","example":"2022-07-23T17:54:36.034Z"},"description":{"type":"object","description":"Anime description","example":"“LycoReco” is a café with a traditional Japanese twist located in downtown Tokyo. But the delicious coffee and sugary sweets are not the only orders this café takes! From delivering packages short distances, to pick-ups and drop-offs on the lonely streets at night, to zombies and giant monster extermination…?! Whatever your problem, we're here to help! We will solve any kind of \"trouble\" you may have!<br>\n<br>\nWaiting for you are the ever-smiling poster-girl and the cool, serious newcomer. A petite girl who never wants to work and a young woman approaching thirty who wants to get married. And the manager is a nice guy who’s obsessed with Japan!<br>\n<br>\nWhatever your order is, leave it all up to us♪<br><br>\n\n(Source: Official Site)"},"duration":{"type":"object","description":"Anime episode duration (in minutes)","example":24},"averageScore":{"type":"object","description":"Anime average rating (out of 100)","example":79},"color":{"type":"object","description":"Anime theme color","example":"#e45078"},"genre":{"description":"Anime genres","example":["Action","Comedy","Slice of Life"],"type":"array","items":{"type":"string"}}},"required":["id","slug","anilistId","coverImage","bannerImage","status","season","title","currentEpisode","next","synonyms","lastEpisodeUpdate","description","duration","averageScore","color","genre"]},"Source":{"type":"object","properties":{"id":{"type":"string","description":"Source ID","example":"cl5xgxxh2255801mnzpsq6xx8"},"url":{"type":"string","description":"Source proxied url","example":"https://api.enime.moe/proxy/source/cl5xgxxh6000y01mn5wdo8ydw"}},"required":["id","url"]},"Episode":{"type":"object","properties":{"id":{"type":"string","description":"Episode ID","example":"cl5xgxxh2255801mnzpsq6xx8"},"anime":{"description":"Anime that has this episode","allOf":[{"$ref":"#/components/schemas/Anime"}]},"number":{"type":"number","description":"Episode number","example":1},"title":{"type":"object","description":"Episode title","example":"Easy Does It"},"image":{"type":"object","description":"Episode title","example":null},"sources":{"description":"Episode sources","type":"array","items":{"$ref":"#/components/schemas/Source"}}},"required":["id","anime","number","title","image","sources"]},"Recent":{"type":"object","properties":{"data":{"description":"Episodes that have been recently released","type":"array","items":{"$ref":"#/components/schemas/Episode"}},"meta":{"type":"object","description":"Pagination meta","example":{"total":651,"lastPage":33,"currentPage":1,"perPage":20,"prev":null,"next":2}}},"required":["data","meta"]},"Search":{"type":"object","properties":{"data":{"description":"Anime entries that match the search query","type":"array","items":{"$ref":"#/components/schemas/Anime"}},"meta":{"type":"object","description":"Pagination meta","example":{"total":651,"lastPage":33,"currentPage":1,"perPage":20,"prev":null,"next":2}}},"required":["data","meta"]}}}}